﻿
Mexico
Morelos
231,224,228,222,227,223,226,222,224,220,226,217,227,216,228,215,226,214,227,213,232,214,234,215,236,216,235,219,234,220,235,223,234,223,233,223,231,224,231,224
Distrito Federal
228,213,227,210,229,208,230,208,232,210,232,211,233,214,232,214,228,213
Querétaro
230,182,229,180,227,177,226,178,225,179,223,180,221,179,220,180,221,182,220,184,217,184,216,185,216,188,215,188,213,188,211,188,209,191,211,194,211,195,213,198,216,201,218,199,218,198,219,197,220,197,219,194,222,192,224,189,226,187,227,185,228,185,230,183,230,182
Aguascalientes
192,172,191,170,190,170,189,168,188,168,186,165,184,167,183,168,182,169,180,171,179,175,181,176,183,176,183,176,187,177,190,175,192,172
Yucatán
384,171,384,174,384,178,384,179,382,184,361,199,352,189,348,188,347,187,347,183,346,183,348,181,354,176,360,175,368,173,370,171,375,170,381,170,384,171
Quintana Roo
383,171,388,171,388,170,386,171,387,170,388,169,391,170,391,171,393,171,394,173,394,175,394,175,393,180,389,185,386,191,386,193,386,195,386,195,385,196,384,198,383,197,383,198,385,199,387,198,387,200,386,201,384,202,384,204,385,204,386,202,386,208,384,212,384,216,383,217,382,222,382,223,383,219,382,216,379,214,380,211,380,209,378,211,378,214,377,215,377,216,374,215,373,217,369,224,368,223,366,224,366,226,362,226,361,200,381,184,384,180,384,178,384,174,383,171
Campeche
362,226,341,228,341,226,337,225,333,224,332,225,332,226,329,227,328,226,325,223,325,219,322,219,321,219,320,217,327,216,328,217,332,216,332,215,336,211,342,206,343,203,343,201,344,198,345,197,345,189,346,183,347,183,347,187,348,188,352,189,361,200,362,226        
Coahuila de Zaragoza
206,136,204,135,201,132,197,133,196,132,196,132,196,131,194,130,193,128,191,128,187,127,186,127,182,127,180,131,180,133,175,131,175,129,173,127,172,125,173,122,172,121,174,117,174,114,174,112,174,110,172,107,170,105,167,87,175,71,177,71,179,69,181,64,183,61,184,60,187,60,187,59,192,60,196,60,199,62,201,63,204,67,207,69,208,71,210,75,212,80,213,83,215,84,218,87,219,90,217,91,214,89,212,91,210,95,206,97,207,99,208,100,209,100,210,100,209,104,208,105,206,105,205,105,202,109,202,111,203,112,205,114,206,116,206,119,207,120,211,125,210,126,207,127,206,129,207,130,207,131,206,136
Tamaulipas
245,165,241,165,240,164,238,165,234,165,232,166,229,165,225,163,224,161,223,162,222,161,222,162,218,161,216,159,217,158,217,156,216,155,215,154,215,153,215,151,216,151,218,151,217,150,217,148,219,146,220,146,222,145,222,144,222,142,222,142,221,138,222,137,220,136,221,134,223,132,227,131,227,128,229,127,230,127,236,122,235,120,234,119,234,113,231,113,229,113,229,112,227,112,227,111,225,109,223,108,223,107,223,104,222,104,221,103,221,102,221,101,220,101,219,98,219,93,218,91,217,91,219,89,222,91,222,95,223,98,223,100,225,103,226,104,228,108,232,109,233,110,237,111,238,112,246,113,249,116,251,114,252,113,252,115,251,121,248,127,248,130,247,135,246,134,248,127,249,121,248,123,248,124,246,123,245,124,246,126,245,128,247,129,246,129,245,131,246,133,246,136,246,141,246,148,246,156,245,160,244,161,245,165
Nuevo León
216,154,216,152,217,152,219,152,218,151,218,149,220,147,221,147,223,146,223,145,223,143,223,143,222,139,223,138,221,137,222,135,224,133,228,132,228,129,230,128,231,128,237,123,236,121,235,120,235,114,232,114,230,114,230,113,228,113,228,112,226,110,224,109,224,108,224,105,223,105,222,104,222,103,222,102,221,102,220,99,220,94,219,92,218,92,220,90,219,90,217,91,214,89,212,91,210,95,206,97,207,99,208,100,209,100,210,100,209,104,208,105,206,105,205,105,202,109,202,111,203,112,205,114,206,116,206,119,207,120,211,125,210,126,207,127,206,129,207,130,207,131,206,136,208,138,209,139,209,142,209,144,210,146,211,146,211,149,211,153,211,154,213,155,213,154,216,154
San Luis Potosí
235,166,233,167,230,166,226,164,225,162,224,163,223,162,223,163,219,162,217,160,218,159,218,157,217,156,216,155,216,154,213,154,213,155,211,154,211,153,211,149,211,146,210,146,209,144,209,142,209,139,208,138,206,136,201,143,193,150,192,150,190,153,188,153,187,155,188,157,188,158,191,163,194,165,195,165,199,163,200,164,200,166,199,169,199,172,198,173,197,174,199,174,201,176,203,176,204,177,207,178,208,179,211,178,212,177,215,178,220,180,221,179,223,180,225,179,226,178,227,177,229,180,230,182,232,183,232,184,235,183,236,182,236,181,237,181,236,178,235,178,236,176,238,175,236,173,236,173,239,169,238,168,236,166,235,166
Guanajuato
220,180,215,178,212,177,211,178,208,179,207,178,204,177,203,176,201,176,199,174,197,174,196,176,196,178,196,179,196,181,196,182,194,184,191,187,189,190,190,192,189,195,191,196,191,198,195,198,195,197,197,196,198,197,199,200,200,200,203,200,204,200,205,202,208,201,211,202,213,198,211,195,211,194,209,191,211,188,213,188,215,188,216,188,216,185,217,184,220,184,221,182,220,180   
Edo. de México
235,209,236,207,236,204,235,203,233,203,231,204,231,202,232,200,230,200,228,201,226,204,224,202,224,199,223,199,222,198,220,197,219,197,218,198,218,199,216,201,216,202,214,206,215,210,212,213,211,214,209,218,210,218,211,219,212,221,214,224,217,221,219,220,221,220,221,219,224,220,225,217,227,216,228,215,226,214,227,213,226,210,228,208,229,208,231,210,231,211,232,214,234,215,236,216,235,209
Puebla
240,231,238,230,236,230,231,226,231,224,233,223,234,223,235,223,234,220,235,219,236,216,235,209,238,210,239,211,241,213,243,213,246,212,248,211,249,210,247,208,246,207,245,206,242,205,241,202,243,200,242,198,241,197,242,196,244,194,245,192,246,190,246,189,248,190,248,191,250,192,250,193,247,194,247,196,248,198,250,198,252,196,256,198,256,199,254,202,254,204,252,206,253,209,256,211,255,214,255,216,255,218,254,219,256,220,257,222,258,222,261,221,261,221,262,223,261,225,260,225,257,227,256,227,254,228,253,229,251,229,251,228,250,226,250,225,248,225,248,227,248,230,247,230,244,229,242,230,240,231
Tlaxcala
242,205,240,205,240,206,238,206,236,207,235,209,238,210,239,211,241,213,243,213,246,212,248,211,249,210,247,208,246,207,245,206,242,205
Hidalgo
235,203,233,203,231,204,231,202,232,200,230,200,228,201,226,204,224,202,224,199,223,199,222,198,220,197,219,194,222,192,224,189,226,187,227,185,228,185,230,183,230,182,232,183,232,184,236,183,236,182,236,181,237,181,237,181,238,182,239,184,240,183,240,184,241,184,242,185,241,188,241,188,239,188,237,190,238,190,237,194,238,195,240,194,243,191,244,191,244,194,242,196,241,197,242,198,243,200,241,203,242,205,242,205,240,205,240,206,238,206,236,207,236,204,235,203 
Veracruz
235,166,239,166,241,165,242,166,246,166,246,168,248,173,253,178,253,180,252,179,251,177,250,176,248,174,250,179,251,180,252,181,253,185,255,190,260,196,265,202,267,206,267,209,271,213,272,213,274,217,275,217,279,218,281,218,284,219,285,220,288,220,289,222,294,225,296,225,297,225,299,227,299,229,301,231,303,232,304,233,305,235,306,236,304,239,302,240,287,239,286,239,286,238,283,234,283,232,278,235,275,235,274,234,274,230,275,229,275,227,273,226,271,226,269,225,268,223,264,222,262,223,261,221,261,221,258,222,257,222,256,220,254,219,255,218,255,216,255,214,256,211,253,209,252,206,254,204,254,202,256,199,256,198,252,196,250,198,248,198,247,196,247,194,250,193,250,192,248,191,248,190,246,189,246,190,245,192,244,194,243,191,243,191,240,194,238,195,237,194,238,190,237,190,239,188,241,188,241,188,242,185,241,184,240,184,240,183,239,184,238,182,237,181,237,181,236,178,235,178,236,176,238,175,236,173,236,173,239,169,238,168,236,166,235,166             
Tabasco
341,228,341,228,341,236,336,236,336,234,334,234,333,233,332,232,330,228,327,228,325,229,319,233,317,236,316,235,314,232,314,230,313,228,312,228,309,227,309,229,308,233,308,233,306,236,305,235,304,233,303,232,301,231,299,229,299,227,297,225,304,222,308,220,314,220,318,217,319,217,320,217,321,219,322,219,325,219,325,223,328,226,329,227,332,226,332,225,333,224,337,225,341,226,341,228
Chiapas
336,236,338,238,341,241,344,242,346,244,347,245,347,246,350,247,350,247,350,249,350,253,332,254,327,264,326,266,327,267,328,268,327,269,327,272,327,274,326,277,324,274,318,269,318,267,316,266,308,260,303,257,302,255,300,255,300,250,299,249,300,245,302,243,302,240,304,239,306,236,308,233,308,233,309,229,309,227,312,228,313,228,314,230,314,232,316,235,317,236,319,233,325,229,327,228,330,228,332,232,333,233,334,234,336,234,336,236
Oaxaca
302,240,287,239,286,239,286,238,283,234,283,232,278,235,275,235,274,234,274,230,275,229,275,227,273,226,271,226,269,225,268,223,264,222,262,223,261,225,260,225,257,227,256,227,254,228,253,229,251,229,251,228,250,226,250,225,248,225,248,227,248,230,247,230,244,229,242,230,240,231,240,236,241,237,241,240,245,243,245,245,243,248,241,251,241,252,240,253,239,253,238,254,242,255,243,255,247,258,248,259,252,259,257,260,262,262,267,263,271,262,278,259,282,257,285,255,289,254,289,254,290,253,286,253,289,251,290,253,292,253,293,253,292,252,293,251,294,252,294,254,295,254,301,256,298,255,298,253,300,255,300,250,299,249,300,245,302,243,302,240
Zacatecas
198,174,196,173,193,172,192,170,191,170,190,168,189,168,187,165,185,167,184,168,183,169,181,171,180,175,182,176,182,178,183,178,182,181,181,182,178,182,177,183,177,185,168,183,169,179,172,177,171,175,174,172,177,172,177,170,178,168,175,166,173,165,173,167,171,170,169,169,169,168,170,164,169,164,169,165,167,168,167,166,167,164,168,162,168,161,165,161,165,162,166,164,166,165,165,167,164,167,161,167,162,161,163,155,164,155,166,149,168,148,168,142,170,141,172,138,175,137,179,137,185,137,185,130,183,127,187,127,188,127,192,128,194,128,195,130,197,131,197,132,197,132,198,133,202,132,205,135,207,136,202,143,194,150,193,150,191,153,189,153,188,155,189,157,189,158,192,163,195,165,196,165,200,163,201,164,201,166,200,169,200,172,199,173,198,174
Guerrero
238,254,235,251,231,250,226,249,222,249,219,247,214,245,206,242,201,239,196,235,192,231,189,230,188,231,188,227,189,227,193,225,192,225,193,222,194,221,198,223,202,222,205,223,206,223,209,224,207,220,207,217,208,218,209,218,210,218,211,219,212,221,214,224,217,221,219,220,221,220,221,219,224,220,226,222,227,223,228,222,231,224,231,226,236,230,238,230,240,231,240,236,241,237,241,240,245,243,245,245,243,248,241,251,241,252,240,253,239,253,238,254
Michoacán de Ocampo            
188,231,182,229,178,228,176,227,171,225,167,221,166,220,170,215,172,215,173,214,175,216,177,213,177,212,181,211,182,209,182,208,180,208,180,205,179,205,181,202,179,202,178,201,177,202,176,200,176,200,179,199,179,199,184,196,186,196,189,195,191,196,191,198,195,198,195,197,197,196,198,197,199,200,200,200,203,200,204,200,205,202,208,201,211,202,213,198,216,201,216,202,214,206,215,210,212,213,211,214,209,218,208,218,207,217,207,220,209,224,206,223,205,223,202,222,198,223,194,221,193,222,192,225,193,225,189,227,188,227,188,231
Colima
166,220,165,219,161,216,158,214,155,213,157,211,158,211,161,208,163,208,166,209,168,208,170,210,170,212,170,214,170,215,166,220 
Jalisco
170,215,172,215,173,214,175,216,177,213,177,212,181,211,182,209,182,208,180,208,180,205,179,205,181,202,179,202,178,201,177,202,176,200,176,200,179,199,179,199,184,196,186,196,189,195,190,192,189,190,191,187,194,184,196,182,196,181,196,179,196,178,196,176,197,174,195,173,192,172,190,175,187,177,183,176,183,176,181,176,181,178,182,178,181,181,180,182,177,182,176,183,176,185,167,183,168,179,171,177,170,175,173,172,176,172,176,170,177,168,174,166,172,165,172,167,170,170,168,169,168,168,169,164,168,164,168,165,166,168,166,166,166,164,167,162,167,161,164,161,164,162,165,164,165,165,164,167,163,167,160,167,159,170,161,172,162,175,162,176,161,178,164,181,164,182,161,183,161,185,160,190,157,188,155,187,154,186,153,186,151,187,149,187,146,190,147,191,147,192,143,193,141,193,141,195,142,198,145,203,147,206,149,208,149,209,150,210,153,211,155,213,157,211,158,211,161,208,163,208,166,209,168,208,170,210,170,212,170,214,170,215               
Nayarit
160,167,159,165,157,166,154,161,152,163,151,163,151,161,153,159,152,158,146,156,145,157,144,159,144,160,145,162,145,163,141,164,142,170,144,176,146,178,147,178,147,181,147,185,145,187,144,188,144,189,146,190,149,187,151,187,153,186,154,186,155,187,157,188,160,190,161,185,161,183,164,182,164,181,161,178,162,176,162,175,161,172,159,170,160,167
Durango
160,167,161,161,162,155,163,155,165,149,167,148,167,142,169,141,171,138,174,137,178,137,184,137,184,130,182,127,180,131,180,133,175,131,175,129,173,127,172,125,173,122,172,121,174,117,174,114,174,112,174,110,172,107,170,105,163,103,159,109,155,108,153,107,152,107,150,106,148,107,145,105,143,104,141,102,139,102,138,103,137,106,136,108,135,108,134,109,134,112,133,113,133,116,130,118,126,118,125,122,125,127,128,131,130,133,131,136,133,138,134,137,137,138,139,140,140,144,141,147,142,151,142,152,144,155,145,155,146,156,152,158,153,159,151,161,151,163,152,163,154,161,157,166,159,165,160,167         
Chihuahua
126,118,123,114,122,111,120,110,116,110,116,103,114,101,113,98,111,98,110,97,108,98,106,96,106,94,106,90,104,86,101,81,102,79,103,79,106,80,108,78,107,77,107,73,107,72,107,64,108,63,109,57,109,53,108,45,107,39,107,37,106,36,107,35,114,35,115,29,135,30,138,31,140,35,143,37,146,40,149,44,152,45,155,48,156,51,158,54,158,57,158,59,160,62,162,63,165,66,169,68,171,69,172,70,175,71,167,87,170,105,163,103,159,109,155,108,153,107,152,107,150,106,148,107,145,105,143,104,141,102,139,102,138,103,137,106,136,108,135,108,134,109,134,112,133,113,133,116,130,118,126,118
Sinaloa
146,156,145,155,144,155,142,152,142,151,141,147,140,144,139,140,137,138,134,137,133,138,131,136,130,133,128,131,125,127,125,122,126,118,123,114,122,111,120,110,116,110,116,103,114,101,113,98,111,98,110,97,108,98,108,99,104,103,97,109,95,112,95,114,95,115,96,117,98,118,100,119,101,120,102,119,103,120,105,121,108,123,108,124,109,124,111,125,112,126,113,128,113,132,116,135,120,138,124,142,125,143,126,146,128,147,131,153,134,156,138,160,141,164,145,163,145,162,144,160,144,159,145,157,146,156
Sonora
97,109,97,108,99,106,99,105,97,104,95,102,95,101,93,102,91,100,90,99,89,95,88,95,82,93,82,91,81,88,82,85,81,84,78,83,75,82,73,78,70,75,68,74,68,73,65,70,66,69,65,69,63,65,63,64,62,61,62,61,60,61,61,60,59,56,57,52,57,48,56,47,55,44,55,43,53,39,54,38,53,33,50,32,49,32,47,28,44,26,42,28,41,28,37,25,36,24,33,21,32,19,32,18,33,13,35,12,80,33,107,35,106,36,107,37,107,39,108,45,109,53,109,57,108,63,107,64,107,72,107,73,107,77,108,78,106,80,103,79,102,79,101,81,104,86,106,90,106,94,106,96,108,98,108,99,104,103,97,109
Baja California Sur
54,80,56,84,57,85,59,87,59,88,61,91,62,93,63,94,64,97,65,101,66,101,66,100,65,97,65,96,68,99,69,100,68,101,69,102,70,103,70,107,71,110,72,115,74,117,75,121,77,124,78,128,77,130,78,134,78,135,81,137,82,137,83,136,82,135,83,134,84,135,86,137,88,139,88,139,88,142,90,143,90,144,91,145,93,147,93,150,92,153,86,156,84,154,84,153,82,148,81,145,79,145,78,144,74,139,70,135,66,133,64,133,60,131,62,130,63,131,64,133,66,133,65,130,63,130,62,127,61,127,60,127,58,125,59,123,60,119,60,114,59,109,58,108,58,106,54,104,51,101,44,96,43,97,40,94,37,93,35,90,34,90,32,88,32,87,31,86,29,85,25,80,29,80,33,81,34,80,36,82,37,83,39,83,39,84,40,85,39,82,39,81,36,82,35,80,35,78,37,78,54,80 
Baja California
36,25,35,26,34,25,34,26,33,29,33,34,33,36,34,36,34,40,34,44,34,48,35,51,36,52,36,52,37,54,37,54,39,55,40,56,44,61,46,65,46,67,48,67,50,71,51,74,52,74,53,75,53,77,54,81,37,79,37,77,37,76,38,72,38,71,37,70,36,69,33,65,30,60,27,58,26,58,25,56,23,55,20,52,19,48,19,44,17,43,17,41,17,37,14,33,14,30,13,28,12,26,11,22,10,20,8,14,6,11,7,10,35,10,36,11,35,12,35,13,33,14,32,19,32,20,33,22,36,25