
Mapa de prueba
Morelos
346.5,342.0,340.5,339.0,336.0,339.0,340.5,342.0,339.0,340.5,348.0,351.0,354.0,352.5,351.0,352.5,351.0,349.5,346.5,346.5
336.0,333.0,334.5,333.0,330.0,325.5,324.0,322.5,321.0,319.5,321.0,322.5,324.0,328.5,330.0,334.5,334.5,334.5,336.0,336.0
Distrito Federal
342.0,340.5,343.5,345.0,348.0,348.0,349.5,348.0,342.0
319.5,315.0,312.0,312.0,315.0,316.5,321.0,321.0,319.5
Querétaro
345.0,343.5,340.5,339.0,337.5,334.5,331.5,330.0,331.5,330.0,325.5,324.0,324.0,322.5,319.5,316.5,313.5,316.5,316.5,319.5,324.0,327.0,327.0,328.5,330.0,328.5,333.0,336.0,339.0,340.5,342.0,345.0,345.0
273.0,270.0,265.5,267.0,268.5,270.0,268.5,270.0,273.0,276.0,276.0,277.5,282.0,282.0,282.0,282.0,286.5,291.0,292.5,297.0,301.5,298.5,297.0,295.5,295.5,291.0,288.0,283.5,280.5,277.5,277.5,274.5,273.0
Aguascalientes
288.0,286.5,285.0,283.5,282.0,279.0,276.0,274.5,273.0,270.0,268.5,271.5,274.5,274.5,280.5,285.0,288.0
258.0,255.0,255.0,252.0,252.0,247.5,250.5,252.0,253.5,256.5,262.5,264.0,264.0,264.0,265.5,262.5,258.0
Yucatán
576.0,576.0,576.0,576.0,573.0,541.5,528.0,522.0,520.5,520.5,519.0,522.0,531.0,540.0,552.0,555.0,562.5,571.5,576.0
256.5,261.0,267.0,268.5,276.0,298.5,283.5,282.0,280.5,274.5,274.5,271.5,264.0,262.5,259.5,256.5,255.0,255.0,256.5
Quintana Roo
574.5,582.0,582.0,579.0,580.5,582.0,586.5,586.5,589.5,591.0,591.0,591.0,589.5,583.5,579.0,579.0,579.0,579.0,577.5,576.0,574.5,574.5,577.5,580.5,580.5,579.0,576.0,576.0,577.5,579.0,579.0,576.0,576.0,574.5,573.0,573.0,574.5,573.0,568.5,570.0,570.0,567.0,567.0,565.5,565.5,561.0,559.5,553.5,552.0,549.0,549.0,543.0,541.5,571.5,576.0,576.0,576.0,574.5
256.5,256.5,255.0,256.5,255.0,253.5,255.0,256.5,256.5,259.5,262.5,262.5,270.0,277.5,286.5,289.5,292.5,292.5,294.0,297.0,295.5,297.0,298.5,297.0,300.0,301.5,303.0,306.0,306.0,303.0,312.0,318.0,324.0,325.5,333.0,334.5,328.5,324.0,321.0,316.5,313.5,316.5,321.0,322.5,324.0,322.5,325.5,336.0,334.5,336.0,339.0,339.0,300.0,276.0,270.0,267.0,261.0,256.5
Campeche
543.0,511.5,511.5,505.5,499.5,498.0,498.0,493.5,492.0,487.5,487.5,483.0,481.5,480.0,490.5,492.0,498.0,498.0,504.0,513.0,514.5,514.5,516.0,517.5,517.5,519.0,520.5,520.5,522.0,528.0,541.5,543.0
339.0,342.0,339.0,337.5,336.0,337.5,339.0,340.5,339.0,334.5,328.5,328.5,328.5,325.5,324.0,325.5,324.0,322.5,316.5,309.0,304.5,301.5,297.0,295.5,283.5,274.5,274.5,280.5,282.0,283.5,300.0,339.0
Coahuila
309.0,306.0,301.5,295.5,294.0,294.0,294.0,291.0,289.5,286.5,280.5,279.0,273.0,270.0,270.0,262.5,262.5,259.5,258.0,259.5,258.0,261.0,261.0,261.0,261.0,258.0,255.0,250.5,262.5,265.5,268.5,271.5,274.5,276.0,280.5,280.5,288.0,294.0,298.5,301.5,306.0,310.5,312.0,315.0,318.0,319.5,322.5,327.0,328.5,325.5,321.0,318.0,315.0,309.0,310.5,312.0,313.5,315.0,313.5,312.0,309.0,307.5,303.0,303.0,304.5,307.5,309.0,309.0,310.5,316.5,315.0,310.5,309.0,310.5,310.5,309.0
204.0,202.5,198.0,199.5,198.0,198.0,196.5,195.0,192.0,192.0,190.5,190.5,190.5,196.5,199.5,196.5,193.5,190.5,187.5,183.0,181.5,175.5,171.0,168.0,165.0,160.5,157.5,130.5,106.5,106.5,103.5,96.0,91.5,90.0,90.0,88.5,90.0,90.0,93.0,94.5,100.5,103.5,106.5,112.5,120.0,124.5,126.0,130.5,135.0,136.5,133.5,136.5,142.5,145.5,148.5,150.0,150.0,150.0,156.0,157.5,157.5,157.5,163.5,166.5,168.0,171.0,174.0,178.5,180.0,187.5,189.0,190.5,193.5,195.0,196.5,204.0
Tamaulipas
367.5,361.5,360.0,357.0,351.0,348.0,343.5,337.5,336.0,334.5,333.0,333.0,327.0,324.0,325.5,325.5,324.0,322.5,322.5,322.5,324.0,327.0,325.5,325.5,328.5,330.0,333.0,333.0,333.0,333.0,331.5,333.0,330.0,331.5,334.5,340.5,340.5,343.5,345.0,354.0,352.5,351.0,351.0,346.5,343.5,343.5,340.5,340.5,337.5,334.5,334.5,334.5,333.0,331.5,331.5,331.5,330.0,328.5,328.5,327.0,325.5,328.5,333.0,333.0,334.5,334.5,337.5,339.0,342.0,348.0,349.5,355.5,357.0,369.0,373.5,376.5,378.0,378.0,376.5,372.0,372.0,370.5,369.0,372.0,373.5,372.0,372.0,369.0,367.5,369.0,367.5,370.5,369.0,367.5,369.0,369.0,369.0,369.0,369.0,367.5,366.0,367.5
247.5,247.5,246.0,247.5,247.5,249.0,247.5,244.5,241.5,243.0,241.5,243.0,241.5,238.5,237.0,234.0,232.5,231.0,229.5,226.5,226.5,226.5,225.0,222.0,219.0,219.0,217.5,216.0,213.0,213.0,207.0,205.5,204.0,201.0,198.0,196.5,192.0,190.5,190.5,183.0,180.0,178.5,169.5,169.5,169.5,168.0,168.0,166.5,163.5,162.0,160.5,156.0,156.0,154.5,153.0,151.5,151.5,147.0,139.5,136.5,136.5,133.5,136.5,142.5,147.0,150.0,154.5,156.0,162.0,163.5,165.0,166.5,168.0,169.5,174.0,171.0,169.5,172.5,181.5,190.5,195.0,202.5,201.0,190.5,181.5,184.5,186.0,184.5,186.0,189.0,192.0,193.5,193.5,196.5,199.5,204.0,211.5,222.0,234.0,240.0,241.5,247.5
Nuevo León
324.0,324.0,325.5,328.5,327.0,327.0,330.0,331.5,334.5,334.5,334.5,334.5,333.0,334.5,331.5,333.0,336.0,342.0,342.0,345.0,346.5,355.5,354.0,352.5,352.5,348.0,345.0,345.0,342.0,342.0,339.0,336.0,336.0,336.0,334.5,333.0,333.0,333.0,331.5,330.0,330.0,328.5,327.0,330.0,328.5,325.5,321.0,318.0,315.0,309.0,310.5,312.0,313.5,315.0,313.5,312.0,309.0,307.5,303.0,303.0,304.5,307.5,309.0,309.0,310.5,316.5,315.0,310.5,309.0,310.5,310.5,309.0,312.0,313.5,313.5,313.5,315.0,316.5,316.5,316.5,316.5,319.5,319.5,324.0
231.0,228.0,228.0,228.0,226.5,223.5,220.5,220.5,219.0,217.5,214.5,214.5,208.5,207.0,205.5,202.5,199.5,198.0,193.5,192.0,192.0,184.5,181.5,180.0,171.0,171.0,171.0,169.5,169.5,168.0,165.0,163.5,162.0,157.5,157.5,156.0,154.5,153.0,153.0,148.5,141.0,138.0,138.0,135.0,135.0,136.5,133.5,136.5,142.5,145.5,148.5,150.0,150.0,150.0,156.0,157.5,157.5,157.5,163.5,166.5,168.0,171.0,174.0,178.5,180.0,187.5,189.0,190.5,193.5,195.0,196.5,204.0,207.0,208.5,213.0,216.0,219.0,219.0,223.5,229.5,231.0,232.5,231.0,231.0
San Luis Potosí
352.5,349.5,345.0,339.0,337.5,336.0,334.5,334.5,328.5,325.5,327.0,327.0,325.5,324.0,324.0,319.5,319.5,316.5,316.5,316.5,316.5,315.0,313.5,313.5,313.5,312.0,309.0,301.5,289.5,288.0,285.0,282.0,280.5,282.0,282.0,286.5,291.0,292.5,298.5,300.0,300.0,298.5,298.5,297.0,295.5,298.5,301.5,304.5,306.0,310.5,312.0,316.5,318.0,322.5,330.0,331.5,334.5,337.5,339.0,340.5,343.5,345.0,348.0,348.0,352.5,354.0,354.0,355.5,354.0,352.5,354.0,357.0,354.0,354.0,358.5,357.0,354.0,352.5
249.0,250.5,249.0,246.0,243.0,244.5,243.0,244.5,243.0,240.0,238.5,235.5,234.0,232.5,231.0,231.0,232.5,231.0,229.5,223.5,219.0,219.0,216.0,213.0,208.5,207.0,204.0,214.5,225.0,225.0,229.5,229.5,232.5,235.5,237.0,244.5,247.5,247.5,244.5,246.0,249.0,253.5,258.0,259.5,261.0,261.0,264.0,264.0,265.5,267.0,268.5,267.0,265.5,267.0,270.0,268.5,270.0,268.5,267.0,265.5,270.0,273.0,274.5,276.0,274.5,273.0,271.5,271.5,267.0,267.0,264.0,262.5,259.5,259.5,253.5,252.0,249.0,249.0
Guanajuato
330.0,322.5,318.0,316.5,312.0,310.5,306.0,304.5,301.5,298.5,295.5,294.0,294.0,294.0,294.0,294.0,291.0,286.5,283.5,285.0,283.5,286.5,286.5,292.5,292.5,295.5,297.0,298.5,300.0,304.5,306.0,307.5,312.0,316.5,319.5,316.5,316.5,313.5,316.5,319.5,322.5,324.0,324.0,325.5,330.0,331.5,330.0
270.0,267.0,265.5,267.0,268.5,267.0,265.5,264.0,264.0,261.0,261.0,264.0,267.0,268.5,271.5,273.0,276.0,280.5,285.0,288.0,292.5,294.0,297.0,297.0,295.5,294.0,295.5,300.0,300.0,300.0,300.0,303.0,301.5,303.0,297.0,292.5,291.0,286.5,282.0,282.0,282.0,282.0,277.5,276.0,276.0,273.0,270.0
Estado de México
352.5,354.0,354.0,352.5,349.5,346.5,346.5,348.0,345.0,342.0,339.0,336.0,336.0,334.5,333.0,330.0,328.5,327.0,327.0,324.0,324.0,321.0,322.5,318.0,316.5,313.5,315.0,316.5,318.0,321.0,325.5,328.5,331.5,331.5,336.0,337.5,340.5,342.0,339.0,340.5,339.0,342.0,343.5,346.5,346.5,348.0,351.0,354.0,352.5
313.5,310.5,306.0,304.5,304.5,306.0,303.0,300.0,300.0,301.5,306.0,303.0,298.5,298.5,297.0,295.5,295.5,297.0,298.5,301.5,303.0,309.0,315.0,319.5,321.0,327.0,327.0,328.5,331.5,336.0,331.5,330.0,330.0,328.5,330.0,325.5,324.0,322.5,321.0,319.5,315.0,312.0,312.0,315.0,316.5,321.0,322.5,324.0,313.5
Puebla
360.0,357.0,354.0,346.5,346.5,349.5,351.0,352.5,351.0,352.5,354.0,352.5,357.0,358.5,361.5,364.5,369.0,372.0,373.5,370.5,369.0,367.5,363.0,361.5,364.5,363.0,361.5,363.0,366.0,367.5,369.0,369.0,372.0,372.0,375.0,375.0,370.5,370.5,372.0,375.0,378.0,384.0,384.0,381.0,381.0,378.0,379.5,384.0,382.5,382.5,382.5,381.0,384.0,385.5,387.0,391.5,391.5,393.0,391.5,390.0,385.5,384.0,381.0,379.5,376.5,376.5,375.0,375.0,372.0,372.0,372.0,370.5,366.0,363.0,360.0
346.5,345.0,345.0,339.0,336.0,334.5,334.5,334.5,330.0,328.5,324.0,313.5,315.0,316.5,319.5,319.5,318.0,316.5,315.0,312.0,310.5,309.0,307.5,303.0,300.0,297.0,295.5,294.0,291.0,288.0,285.0,283.5,285.0,286.5,288.0,289.5,291.0,294.0,297.0,297.0,294.0,297.0,298.5,303.0,306.0,309.0,313.5,316.5,321.0,324.0,327.0,328.5,330.0,333.0,333.0,331.5,331.5,334.5,337.5,337.5,340.5,340.5,342.0,343.5,343.5,342.0,339.0,337.5,337.5,340.5,345.0,345.0,343.5,345.0,346.5
Tlaxcala
363.0,360.0,360.0,357.0,354.0,352.5,357.0,358.5,361.5,364.5,369.0,372.0,373.5,370.5,369.0,367.5,363.0
307.5,307.5,309.0,309.0,310.5,313.5,315.0,316.5,319.5,319.5,318.0,316.5,315.0,312.0,310.5,309.0,307.5
Hidalgo
352.5,349.5,346.5,346.5,348.0,345.0,342.0,339.0,336.0,336.0,334.5,333.0,330.0,328.5,333.0,336.0,339.0,340.5,342.0,345.0,345.0,348.0,348.0,354.0,354.0,354.0,355.5,355.5,357.0,358.5,360.0,360.0,361.5,363.0,361.5,361.5,358.5,355.5,357.0,355.5,357.0,360.0,364.5,366.0,366.0,363.0,361.5,363.0,364.5,361.5,363.0,363.0,360.0,360.0,357.0,354.0,354.0,352.5
304.5,304.5,306.0,303.0,300.0,300.0,301.5,306.0,303.0,298.5,298.5,297.0,295.5,291.0,288.0,283.5,280.5,277.5,277.5,274.5,273.0,274.5,276.0,274.5,273.0,271.5,271.5,271.5,273.0,276.0,274.5,276.0,276.0,277.5,282.0,282.0,282.0,285.0,285.0,291.0,292.5,291.0,286.5,286.5,291.0,294.0,295.5,297.0,300.0,304.5,307.5,307.5,307.5,309.0,309.0,310.5,306.0,304.5
Veracruz
352.5,358.5,361.5,363.0,369.0,369.0,372.0,379.5,379.5,378.0,376.5,375.0,372.0,375.0,376.5,378.0,379.5,382.5,390.0,397.5,400.5,400.5,406.5,408.0,411.0,412.5,418.5,421.5,426.0,427.5,432.0,433.5,441.0,444.0,445.5,448.5,448.5,451.5,454.5,456.0,457.5,459.0,456.0,453.0,430.5,429.0,429.0,424.5,424.5,417.0,412.5,411.0,411.0,412.5,412.5,409.5,406.5,403.5,402.0,396.0,393.0,391.5,391.5,387.0,385.5,384.0,381.0,382.5,382.5,382.5,384.0,379.5,378.0,381.0,381.0,384.0,384.0,378.0,375.0,372.0,370.5,370.5,375.0,375.0,372.0,372.0,369.0,369.0,367.5,366.0,364.5,364.5,360.0,357.0,355.5,357.0,355.5,358.5,361.5,361.5,363.0,361.5,360.0,360.0,358.5,357.0,355.5,355.5,354.0,352.5,354.0,357.0,354.0,354.0,358.5,357.0,354.0,352.5
249.0,249.0,247.5,249.0,249.0,252.0,259.5,267.0,270.0,268.5,265.5,264.0,261.0,268.5,270.0,271.5,277.5,285.0,294.0,303.0,309.0,313.5,319.5,319.5,325.5,325.5,327.0,327.0,328.5,330.0,330.0,333.0,337.5,337.5,337.5,340.5,343.5,346.5,348.0,349.5,352.5,354.0,358.5,360.0,358.5,358.5,357.0,351.0,348.0,352.5,352.5,351.0,345.0,343.5,340.5,339.0,339.0,337.5,334.5,333.0,334.5,331.5,331.5,333.0,333.0,330.0,328.5,327.0,324.0,321.0,316.5,313.5,309.0,306.0,303.0,298.5,297.0,294.0,297.0,297.0,294.0,291.0,289.5,288.0,286.5,285.0,283.5,285.0,288.0,291.0,286.5,286.5,291.0,292.5,291.0,285.0,285.0,282.0,282.0,282.0,277.5,276.0,276.0,274.5,276.0,273.0,271.5,271.5,267.0,267.0,264.0,262.5,259.5,259.5,253.5,252.0,249.0,249.0
Tabasco
511.5,511.5,511.5,504.0,504.0,501.0,499.5,498.0,495.0,490.5,487.5,478.5,475.5,474.0,471.0,471.0,469.5,468.0,463.5,463.5,462.0,462.0,459.0,457.5,456.0,454.5,451.5,448.5,448.5,445.5,456.0,462.0,471.0,477.0,478.5,480.0,481.5,483.0,487.5,487.5,492.0,493.5,498.0,498.0,499.5,505.5,511.5,511.5
342.0,342.0,354.0,354.0,351.0,351.0,349.5,348.0,342.0,342.0,343.5,349.5,354.0,352.5,348.0,345.0,342.0,342.0,340.5,343.5,349.5,349.5,354.0,352.5,349.5,348.0,346.5,343.5,340.5,337.5,333.0,330.0,330.0,325.5,325.5,325.5,328.5,328.5,328.5,334.5,339.0,340.5,339.0,337.5,336.0,337.5,339.0,342.0
Chiapas
504.0,507.0,511.5,516.0,519.0,520.5,520.5,525.0,525.0,525.0,525.0,498.0,490.5,489.0,490.5,492.0,490.5,490.5,490.5,489.0,486.0,477.0,477.0,474.0,462.0,454.5,453.0,450.0,450.0,448.5,450.0,453.0,453.0,456.0,459.0,462.0,462.0,463.5,463.5,468.0,469.5,471.0,471.0,474.0,475.5,478.5,487.5,490.5,495.0,498.0,499.5,501.0,504.0,504.0
354.0,357.0,361.5,363.0,366.0,367.5,369.0,370.5,370.5,373.5,379.5,381.0,396.0,399.0,400.5,402.0,403.5,408.0,411.0,415.5,411.0,403.5,400.5,399.0,390.0,385.5,382.5,382.5,375.0,373.5,367.5,364.5,360.0,358.5,354.0,349.5,349.5,343.5,340.5,342.0,342.0,345.0,348.0,352.5,354.0,349.5,343.5,342.0,342.0,348.0,349.5,351.0,351.0,354.0
Oaxaca
453.0,430.5,429.0,429.0,424.5,424.5,417.0,412.5,411.0,411.0,412.5,412.5,409.5,406.5,403.5,402.0,396.0,393.0,391.5,390.0,385.5,384.0,381.0,379.5,376.5,376.5,375.0,375.0,372.0,372.0,372.0,370.5,366.0,363.0,360.0,360.0,361.5,361.5,367.5,367.5,364.5,361.5,361.5,360.0,358.5,357.0,363.0,364.5,370.5,372.0,378.0,385.5,393.0,400.5,406.5,417.0,423.0,427.5,433.5,433.5,435.0,429.0,433.5,435.0,438.0,439.5,438.0,439.5,441.0,441.0,442.5,451.5,447.0,447.0,450.0,450.0,448.5,450.0,453.0,453.0
360.0,358.5,358.5,357.0,351.0,348.0,352.5,352.5,351.0,345.0,343.5,340.5,339.0,339.0,337.5,334.5,333.0,334.5,337.5,337.5,340.5,340.5,342.0,343.5,343.5,342.0,339.0,337.5,337.5,340.5,345.0,345.0,343.5,345.0,346.5,354.0,355.5,360.0,364.5,367.5,372.0,376.5,378.0,379.5,379.5,381.0,382.5,382.5,387.0,388.5,388.5,390.0,393.0,394.5,393.0,388.5,385.5,382.5,381.0,381.0,379.5,379.5,376.5,379.5,379.5,379.5,378.0,376.5,378.0,381.0,381.0,384.0,382.5,379.5,382.5,375.0,373.5,367.5,364.5,360.0
Zacatecas
297.0,294.0,289.5,288.0,286.5,285.0,283.5,280.5,277.5,276.0,274.5,271.5,270.0,273.0,273.0,274.5,273.0,271.5,267.0,265.5,265.5,252.0,253.5,258.0,256.5,261.0,265.5,265.5,267.0,262.5,259.5,259.5,256.5,253.5,253.5,255.0,253.5,253.5,250.5,250.5,250.5,252.0,252.0,247.5,247.5,249.0,249.0,247.5,246.0,241.5,243.0,244.5,246.0,249.0,252.0,252.0,255.0,258.0,262.5,268.5,277.5,277.5,274.5,280.5,282.0,288.0,291.0,292.5,295.5,295.5,295.5,297.0,303.0,307.5,310.5,303.0,291.0,289.5,286.5,283.5,282.0,283.5,283.5,288.0,292.5,294.0,300.0,301.5,301.5,300.0,300.0,298.5,297.0
261.0,259.5,258.0,255.0,255.0,252.0,252.0,247.5,250.5,252.0,253.5,256.5,262.5,264.0,267.0,267.0,271.5,273.0,273.0,274.5,277.5,274.5,268.5,265.5,262.5,258.0,258.0,255.0,252.0,249.0,247.5,250.5,255.0,253.5,252.0,246.0,246.0,247.5,252.0,249.0,246.0,243.0,241.5,241.5,243.0,246.0,247.5,250.5,250.5,250.5,241.5,232.5,232.5,223.5,222.0,213.0,211.5,207.0,205.5,205.5,205.5,195.0,190.5,190.5,190.5,192.0,192.0,195.0,196.5,198.0,198.0,199.5,198.0,202.5,204.0,214.5,225.0,225.0,229.5,229.5,232.5,235.5,237.0,244.5,247.5,247.5,244.5,246.0,249.0,253.5,258.0,259.5,261.0
Guerrero
357.0,352.5,346.5,339.0,333.0,328.5,321.0,309.0,301.5,294.0,288.0,283.5,282.0,282.0,283.5,289.5,288.0,289.5,291.0,297.0,303.0,307.5,309.0,313.5,310.5,310.5,312.0,313.5,315.0,316.5,318.0,321.0,325.5,328.5,331.5,331.5,336.0,339.0,340.5,342.0,346.5,346.5,354.0,357.0,360.0,360.0,361.5,361.5,367.5,367.5,364.5,361.5,361.5,360.0,358.5,357.0
381.0,376.5,375.0,373.5,373.5,370.5,367.5,363.0,358.5,352.5,346.5,345.0,346.5,340.5,340.5,337.5,337.5,333.0,331.5,334.5,333.0,334.5,334.5,336.0,330.0,325.5,327.0,327.0,327.0,328.5,331.5,336.0,331.5,330.0,330.0,328.5,330.0,333.0,334.5,333.0,336.0,339.0,345.0,345.0,346.5,354.0,355.5,360.0,364.5,367.5,372.0,376.5,378.0,379.5,379.5,381.0
Michoacán
282.0,273.0,267.0,264.0,256.5,250.5,249.0,255.0,258.0,259.5,262.5,265.5,265.5,271.5,273.0,273.0,270.0,270.0,268.5,271.5,268.5,267.0,265.5,264.0,264.0,268.5,268.5,276.0,279.0,283.5,286.5,286.5,292.5,292.5,295.5,297.0,298.5,300.0,304.5,306.0,307.5,312.0,316.5,319.5,324.0,324.0,321.0,322.5,318.0,316.5,313.5,312.0,310.5,310.5,313.5,309.0,307.5,303.0,297.0,291.0,289.5,288.0,289.5,283.5,282.0,282.0
346.5,343.5,342.0,340.5,337.5,331.5,330.0,322.5,322.5,321.0,324.0,319.5,318.0,316.5,313.5,312.0,312.0,307.5,307.5,303.0,303.0,301.5,303.0,300.0,300.0,298.5,298.5,294.0,294.0,292.5,294.0,297.0,297.0,295.5,294.0,295.5,300.0,300.0,300.0,300.0,303.0,301.5,303.0,297.0,301.5,303.0,309.0,315.0,319.5,321.0,327.0,327.0,325.5,330.0,336.0,334.5,334.5,333.0,334.5,331.5,333.0,337.5,337.5,340.5,340.5,346.5
Colima
249.0,247.5,241.5,237.0,232.5,235.5,237.0,241.5,244.5,249.0,252.0,255.0,255.0,255.0,255.0,249.0
330.0,328.5,324.0,321.0,319.5,316.5,316.5,312.0,312.0,313.5,312.0,315.0,318.0,321.0,322.5,330.0
Jalisco
255.0,258.0,259.5,262.5,265.5,265.5,271.5,273.0,273.0,270.0,270.0,268.5,271.5,268.5,267.0,265.5,264.0,264.0,268.5,268.5,276.0,279.0,283.5,285.0,283.5,286.5,291.0,294.0,294.0,294.0,294.0,294.0,295.5,292.5,288.0,285.0,280.5,274.5,274.5,271.5,271.5,273.0,271.5,270.0,265.5,264.0,264.0,250.5,252.0,256.5,255.0,259.5,264.0,264.0,265.5,261.0,258.0,258.0,255.0,252.0,252.0,253.5,252.0,252.0,249.0,249.0,249.0,250.5,250.5,246.0,246.0,247.5,247.5,246.0,244.5,240.0,238.5,241.5,243.0,243.0,241.5,246.0,246.0,241.5,241.5,240.0,235.5,232.5,231.0,229.5,226.5,223.5,219.0,220.5,220.5,214.5,211.5,211.5,213.0,217.5,220.5,223.5,223.5,225.0,229.5,232.5,235.5,237.0,241.5,244.5,249.0,252.0,255.0,255.0,255.0,255.0
322.5,322.5,321.0,324.0,319.5,318.0,316.5,313.5,312.0,312.0,307.5,307.5,303.0,303.0,301.5,303.0,300.0,300.0,298.5,298.5,294.0,294.0,292.5,288.0,285.0,280.5,276.0,273.0,271.5,268.5,267.0,264.0,261.0,259.5,258.0,262.5,265.5,264.0,264.0,264.0,267.0,267.0,271.5,273.0,273.0,274.5,277.5,274.5,268.5,265.5,262.5,258.0,258.0,255.0,252.0,249.0,247.5,250.5,255.0,253.5,252.0,246.0,246.0,247.5,252.0,249.0,246.0,243.0,241.5,241.5,243.0,246.0,247.5,250.5,250.5,250.5,255.0,258.0,262.5,264.0,267.0,271.5,273.0,274.5,277.5,285.0,282.0,280.5,279.0,279.0,280.5,280.5,285.0,286.5,288.0,289.5,289.5,292.5,297.0,304.5,309.0,312.0,313.5,315.0,316.5,319.5,316.5,316.5,312.0,312.0,313.5,312.0,315.0,318.0,321.0,322.5
Nayarit
240.0,238.5,235.5,231.0,228.0,226.5,226.5,229.5,228.0,219.0,217.5,216.0,216.0,217.5,217.5,211.5,213.0,216.0,219.0,220.5,220.5,220.5,217.5,216.0,216.0,219.0,223.5,226.5,229.5,231.0,232.5,235.5,240.0,241.5,241.5,246.0,246.0,241.5,243.0,243.0,241.5,238.5,240.0
250.5,247.5,249.0,241.5,244.5,244.5,241.5,238.5,237.0,234.0,235.5,238.5,240.0,243.0,244.5,246.0,255.0,264.0,267.0,267.0,271.5,277.5,280.5,282.0,283.5,285.0,280.5,280.5,279.0,279.0,280.5,282.0,285.0,277.5,274.5,273.0,271.5,267.0,264.0,262.5,258.0,255.0,250.5
Durango
240.0,241.5,243.0,244.5,247.5,250.5,250.5,253.5,256.5,261.0,267.0,276.0,276.0,273.0,270.0,270.0,262.5,262.5,259.5,258.0,259.5,258.0,261.0,261.0,261.0,261.0,258.0,255.0,244.5,238.5,232.5,229.5,228.0,225.0,222.0,217.5,214.5,211.5,208.5,207.0,205.5,204.0,202.5,201.0,201.0,199.5,199.5,195.0,189.0,187.5,187.5,192.0,195.0,196.5,199.5,201.0,205.5,208.5,210.0,211.5,213.0,213.0,216.0,217.5,219.0,228.0,229.5,226.5,226.5,228.0,231.0,235.5,238.5,240.0
250.5,241.5,232.5,232.5,223.5,222.0,213.0,211.5,207.0,205.5,205.5,205.5,195.0,190.5,196.5,199.5,196.5,193.5,190.5,187.5,183.0,181.5,175.5,171.0,168.0,165.0,160.5,157.5,154.5,163.5,162.0,160.5,160.5,159.0,160.5,157.5,156.0,153.0,153.0,154.5,159.0,162.0,162.0,163.5,168.0,169.5,174.0,177.0,177.0,183.0,190.5,196.5,199.5,204.0,207.0,205.5,207.0,210.0,216.0,220.5,226.5,228.0,232.5,232.5,234.0,237.0,238.5,241.5,244.5,244.5,241.5,249.0,247.5,250.5
Chihuahua
189.0,184.5,183.0,180.0,174.0,174.0,171.0,169.5,166.5,165.0,162.0,159.0,159.0,159.0,156.0,151.5,153.0,154.5,159.0,162.0,160.5,160.5,160.5,160.5,162.0,163.5,163.5,162.0,160.5,160.5,159.0,160.5,171.0,172.5,202.5,207.0,210.0,214.5,219.0,223.5,228.0,232.5,234.0,237.0,237.0,237.0,240.0,243.0,247.5,253.5,256.5,258.0,262.5,250.5,255.0,244.5,238.5,232.5,229.5,228.0,225.0,222.0,217.5,214.5,211.5,208.5,207.0,205.5,204.0,202.5,201.0,201.0,199.5,199.5,195.0,189.0
177.0,171.0,166.5,165.0,165.0,154.5,151.5,147.0,147.0,145.5,147.0,144.0,141.0,135.0,129.0,121.5,118.5,118.5,120.0,117.0,115.5,109.5,108.0,96.0,94.5,85.5,79.5,67.5,58.5,55.5,54.0,52.5,52.5,43.5,45.0,46.5,52.5,55.5,60.0,66.0,67.5,72.0,76.5,81.0,85.5,88.5,93.0,94.5,99.0,102.0,103.5,105.0,106.5,130.5,157.5,154.5,163.5,162.0,160.5,160.5,159.0,160.5,157.5,156.0,153.0,153.0,154.5,159.0,162.0,162.0,163.5,168.0,169.5,174.0,177.0,177.0
Sinaloa
219.0,217.5,216.0,213.0,213.0,211.5,210.0,208.5,205.5,201.0,199.5,196.5,195.0,192.0,187.5,187.5,189.0,184.5,183.0,180.0,174.0,174.0,171.0,169.5,166.5,165.0,162.0,162.0,156.0,145.5,142.5,142.5,142.5,144.0,147.0,150.0,151.5,153.0,154.5,157.5,162.0,162.0,163.5,166.5,168.0,169.5,169.5,174.0,180.0,186.0,187.5,189.0,192.0,196.5,201.0,207.0,211.5,217.5,217.5,216.0,216.0,217.5,219.0
234.0,232.5,232.5,228.0,226.5,220.5,216.0,210.0,207.0,205.5,207.0,204.0,199.5,196.5,190.5,183.0,177.0,171.0,166.5,165.0,165.0,154.5,151.5,147.0,147.0,145.5,147.0,148.5,154.5,163.5,168.0,171.0,172.5,175.5,177.0,178.5,180.0,178.5,180.0,181.5,184.5,186.0,186.0,187.5,189.0,192.0,198.0,202.5,207.0,213.0,214.5,219.0,220.5,229.5,234.0,240.0,246.0,244.5,243.0,240.0,238.5,235.5,234.0
Sonora
145.5,145.5,148.5,148.5,145.5,142.5,142.5,139.5,136.5,135.0,133.5,132.0,123.0,123.0,121.5,123.0,121.5,117.0,112.5,109.5,105.0,102.0,102.0,97.5,99.0,97.5,94.5,94.5,93.0,93.0,90.0,91.5,88.5,85.5,85.5,84.0,82.5,82.5,79.5,81.0,79.5,75.0,73.5,70.5,66.0,63.0,61.5,55.5,54.0,49.5,48.0,48.0,49.5,52.5,120.0,160.5,159.0,160.5,160.5,162.0,163.5,163.5,162.0,160.5,160.5,160.5,160.5,162.0,159.0,154.5,153.0,151.5,156.0,159.0,159.0,159.0,162.0,162.0,156.0,145.5
163.5,162.0,159.0,157.5,156.0,153.0,151.5,153.0,150.0,148.5,142.5,142.5,139.5,136.5,132.0,127.5,126.0,124.5,123.0,117.0,112.5,111.0,109.5,105.0,103.5,103.5,97.5,96.0,91.5,91.5,91.5,90.0,84.0,78.0,72.0,70.5,66.0,64.5,58.5,57.0,49.5,48.0,48.0,42.0,39.0,42.0,42.0,37.5,36.0,31.5,28.5,27.0,19.5,18.0,49.5,52.5,54.0,55.5,58.5,67.5,79.5,85.5,94.5,96.0,108.0,109.5,115.5,117.0,120.0,118.5,118.5,121.5,129.0,135.0,141.0,144.0,147.0,148.5,154.5,163.5
Baja California Sur
81.0,84.0,85.5,88.5,88.5,91.5,93.0,94.5,96.0,97.5,99.0,99.0,97.5,97.5,102.0,103.5,102.0,103.5,105.0,105.0,106.5,108.0,111.0,112.5,115.5,117.0,115.5,117.0,117.0,121.5,123.0,124.5,123.0,124.5,126.0,129.0,132.0,132.0,132.0,135.0,135.0,136.5,139.5,139.5,138.0,129.0,126.0,126.0,123.0,121.5,118.5,117.0,111.0,105.0,99.0,96.0,90.0,93.0,94.5,96.0,99.0,97.5,94.5,93.0,91.5,90.0,87.0,88.5,90.0,90.0,88.5,87.0,87.0,81.0,76.5,66.0,64.5,60.0,55.5,52.5,51.0,48.0,48.0,46.5,43.5,37.5,43.5,49.5,51.0,54.0,55.5,58.5,58.5,60.0,58.5,58.5,54.0,52.5,52.5,55.5,81.0
120.0,126.0,127.5,130.5,132.0,136.5,139.5,141.0,145.5,151.5,151.5,150.0,145.5,144.0,148.5,150.0,151.5,153.0,154.5,160.5,165.0,172.5,175.5,181.5,186.0,192.0,195.0,201.0,202.5,205.5,205.5,204.0,202.5,201.0,202.5,205.5,208.5,208.5,213.0,214.5,216.0,217.5,220.5,225.0,229.5,234.0,231.0,229.5,222.0,217.5,217.5,216.0,208.5,202.5,199.5,199.5,196.5,195.0,196.5,199.5,199.5,195.0,195.0,190.5,190.5,190.5,187.5,184.5,178.5,171.0,163.5,162.0,159.0,156.0,151.5,144.0,145.5,141.0,139.5,135.0,135.0,132.0,130.5,129.0,127.5,120.0,120.0,121.5,120.0,123.0,124.5,124.5,126.0,127.5,123.0,121.5,123.0,120.0,117.0,117.0,120.0
Baja California
54.0,52.5,51.0,51.0,49.5,49.5,49.5,51.0,51.0,51.0,51.0,52.5,54.0,54.0,55.5,55.5,58.5,60.0,66.0,69.0,69.0,72.0,75.0,76.5,78.0,79.5,79.5,81.0,55.5,55.5,55.5,57.0,57.0,55.5,54.0,49.5,45.0,40.5,39.0,37.5,34.5,30.0,28.5,28.5,25.5,25.5,25.5,21.0,21.0,19.5,18.0,16.5,15.0,12.0,9.0,10.5,52.5,54.0,52.5,52.5,49.5,48.0,48.0,49.5,54.0
37.5,39.0,37.5,39.0,43.5,51.0,54.0,54.0,60.0,66.0,72.0,76.5,78.0,78.0,81.0,81.0,82.5,84.0,91.5,97.5,100.5,100.5,106.5,111.0,111.0,112.5,115.5,121.5,118.5,115.5,114.0,108.0,106.5,105.0,103.5,97.5,90.0,87.0,87.0,84.0,82.5,78.0,72.0,66.0,64.5,61.5,55.5,49.5,45.0,42.0,39.0,33.0,30.0,21.0,16.5,15.0,15.0,16.5,18.0,19.5,21.0,28.5,30.0,33.0,37.5
