
Mapa de prueba
Fig1
5,5,200,200
5,200,200,5
Fig2
400,500,600,500
500,550,450,650
Fig3
631,692,708,714,753,745,696,679,618,603,571,559,537,491,476,456,434,440,464,476,527,577
312,309,292,246,197,149,170,110,139,131,105,94,90,109,112,128,151,220,290,312,335,337